Social Metrics Report - Generated on 04-10-2014 20:28:41 PDT - Powered by Social Metrics Pro Plugin (http://socialmetricspro.com/)
Post ID	Update Time (PDT)	Post Type	Post Title	Post URL	Tweets	Facebook Likes	Google +1s	Pins	LinkedIn Shares
10852	2014-04-10 09:15:05	post	Why Women (and Men Who Think Like Them) Will Rule the Future of Work	http://switchandshift.com/why-women-and-men-who-think-like-them-will-rule-the-future-of-work	25	0	0	0	2
10824	2014-04-10 09:15:06	post	Predicting Business Leadership Excellence	http://switchandshift.com/predicting-business-leadership-excellence	34	0	2	0	12
10791	2014-04-10 09:15:07	post	The Art of Strategy	http://switchandshift.com/the-art-of-strategy	108	0	5	2	15
10810	2014-04-10 09:15:09	post	How to Break Through the Resistance	http://switchandshift.com/how-to-break-through-the-resistance	87	0	6	2	13
10769	2014-04-10 09:15:10	post	3 Reasons Why Resumes Are Dead. How Past Performance Can't Predict Future Success (or Failure)	http://switchandshift.com/resumes-are-dead	190	0	16	5	192
10799	2014-04-10 09:15:11	post	Unlocking Employee Ideas	http://switchandshift.com/unlocking-employee-ideas	94	2	1	0	3
10777	2014-04-10 09:15:13	post	Leading After a Layoff	http://switchandshift.com/leading-after-a-layoff	92	0	2	0	84
10747	2014-04-10 09:15:14	post	Make Culture Your Strategic Advantage For Breakout Success	http://switchandshift.com/make-culture-your-strategic-advantage-for-breakout-success	171	7	6	0	40
10737	2014-04-10 09:15:16	post	GM’s Mary Barra Will Lead the Greatest Culture Transformation of All Time	http://switchandshift.com/gms-mary-barra-will-lead-the-greatest-culture-transformation-of-all-time	187	2	11	1	43
10728	2014-04-10 09:15:17	post	The World Pays Off on Judgment	http://switchandshift.com/the-world-pays-off-on-judgment	111	20	9	1	26
10757	2014-04-10 09:15:18	post	Switch and Shift's Unofficial Manifesto	http://switchandshift.com/switch-and-shifts-unofficial-manifesto	98	1	6	0	5
10708	2014-04-10 09:15:20	post	5 Signs You Are Fooling Yourself	http://switchandshift.com/5-signs-you-are-fooling-yourself	211	16	8	1	75
10699	2014-04-10 09:15:21	post	Why Smart Leaders Embrace Flexibility	http://switchandshift.com/why-smart-leaders-embrace-flexibility	257	27	9	0	98
10682	2014-04-10 09:15:23	post	Overcoming Reluctance to Express Appreciation	http://switchandshift.com/overcoming-reluctance-to-express-appreciation	157	23	4	2	29
10674	2014-04-10 09:15:24	post	Drawing The Line: This is What's Not For Sale	http://switchandshift.com/drawing-the-line-this-is-whats-not-for-sale	147	17	15	2	33
10694	2014-04-10 09:15:25	post	The 5 C's to Captivate Employees' Hearts and Minds	http://switchandshift.com/the-5-cs-to-captivate-employees-hearts-and-minds	247	41	12	3	94
10665	2014-04-10 09:15:26	post	101 Things To Never Say Again	http://switchandshift.com/101-things-to-never-say-again	308	57	6	4	104
10656	2014-04-10 09:15:28	post	Unleash the Potential of Your People With One Word	http://switchandshift.com/unleash-the-potential-of-your-people-with-one-word	165	18	5	0	72
