Social Metrics Report - Generated on 04-02-2014 20:38:39 PDT - Powered by Social Metrics Pro Plugin (http://socialmetricspro.com/)
Post ID	Update Time (PDT)	Post Type	Post Title	Post URL	Tweets	Facebook Likes	Google +1s	Pins	LinkedIn Shares
10656	2014-04-02 09:15:20	post	Unleash the Potential of Your People With One Word	http://switchandshift.com/unleash-the-potential-of-your-people-with-one-word	89	10	3	0	46
10628	2014-04-02 09:15:24	post	The Top 5 Posts on @switchandshift for March 2014	http://switchandshift.com/the-top-5-posts-on-switchandshift-for-march-2014	120	19	8	1	22
10591	2014-04-02 09:15:30	post	The Guide to Understanding Corporate Culture	http://switchandshift.com/the-guide-to-understanding-corporate-culture	160	15	10	0	67
10425	2014-04-02 09:15:48	post	Does Your Work Suck? Make It Into A Game!	http://switchandshift.com/does-your-work-suck-make-it-into-a-game	181	28	2	1	32
10344	2014-04-02 09:15:55	post	The Case for Antiguruism	http://switchandshift.com/the-case-for-antiguruism	84	10	3	0	12
10141	2014-04-02 09:16:27	post	5 Employee Questions Every Company Should Answer	http://switchandshift.com/5-employee-questions-every-company-should-answer	293	44	29	5	116
10131	2014-04-02 09:16:29	post	It’s Time for Your BOLDEST Leadership Ever	http://switchandshift.com/its-time-for-your-boldest-leadership-ever	242	16	3	2	41
10096	2014-04-02 09:16:34	post	How to Attract Top Talent	http://switchandshift.com/how-to-attract-top-talent	166	11	6	3	91
10080	2014-04-02 09:16:35	post	It's a Culture, Not a Cult	http://switchandshift.com/its-a-culture-not-a-cult	258	29	22	3	65
10040	2014-04-02 09:16:42	post	Victory Over the Forces of Fakery 	http://switchandshift.com/victory-over-the-forces-of-fakery	141	8	4	3	15
10033	2014-04-02 09:16:44	post	We Is Bigger Than You	http://switchandshift.com/we-is-bigger-than-you	229	30	19	2	38
10010	2014-04-02 09:16:46	post	Our Message to the Changemaker Millennials	http://switchandshift.com/our-message-to-the-changemaker-millennials	226	32	2	2	38
9990	2014-04-02 09:16:50	post	Using Social to Enhance the Customer Experience	http://switchandshift.com/using-social-to-enhance-the-customer-experience	194	16	6	0	22
9967	2014-04-02 09:16:52	post	Why Your Change Needs a Word of Mouth Strategy	http://switchandshift.com/why-your-change-needs-a-word-of-mouth-strategy	250	31	10	0	49
9959	2014-04-02 09:16:53	post	3 Underused Tactics to Better Communicate	http://switchandshift.com/3-underused-tactics-to-better-communicate	134	21	3	0	18
9920	2014-04-02 09:17:01	post	Communication from the Top	http://switchandshift.com/communication-from-the-top	96	7	4	0	9
9892	2014-04-02 09:17:02	post	Culture’s Role In Great Communication	http://switchandshift.com/cultures-role-in-great-communication	185	30	7	0	50
9883	2014-04-02 09:17:04	post	Secrets of a Communication Curmudgeon	http://switchandshift.com/secrets-of-a-communication-curmudgeon	225	6	10	14	9
9825	2014-04-02 09:17:07	post	Respect Civility, Revere Candor	http://switchandshift.com/respect-civility-revere-candor	126	11	4	2	11
9818	2014-04-02 09:17:09	post	Your Method Sends a Message	http://switchandshift.com/your-method-sends-a-message	183	27	5	2	34
9809	2014-04-02 09:17:10	post	Back to Basics: Communication 101	http://switchandshift.com/back-to-basics-communication-101	139	22	14	1	134
9746	2014-04-02 09:17:11	post	Innovation is Inspiration: Lead in your Surroundings	http://switchandshift.com/innovation-is-inspiration-lead-in-your-surroundings	739	163	37	46	77
9788	2014-04-02 09:17:16	post	In War and Business, Complacency Isn’t an Option	http://switchandshift.com/in-war-and-business-complacency-isnt-an-option	191	10	8	0	17
9728	2014-04-02 09:17:19	post	Get Inspired by your Work	http://switchandshift.com/get-inspired-by-your-work	222	21	10	1	27
9704	2014-04-02 09:17:20	post	5 Ways to Inspire Employees With Creative Insight 	http://switchandshift.com/5-ways-to-inspire-employees-with-creative-insight	237	29	9	1	47
9697	2014-04-02 09:17:21	post	The Leadership Paradox: Navigating that "Just Right" Place	http://switchandshift.com/the-leadership-paradox	141	15	3	1	28
9706	2014-04-02 09:17:24	post	Self-Doubt is Overrated	http://switchandshift.com/self-doubt-is-overrated	193	48	15	2	22
9690	2014-04-02 09:17:25	post	Building A Leadership & Management Must	http://switchandshift.com/building-a-leadership-management-must	170	18	1	1	31
9680	2014-04-02 09:17:27	post	8 Essential Elements for Finding Fulfillment at Work	http://switchandshift.com/8-essential-elements-for-finding-fulfillment-at-work	334	49	13	2	64
9676	2014-04-02 09:17:29	post	DIY Strategic Planning: Creating Meaningful Engagement	http://switchandshift.com/diy-strategic-planning-creating-meaningful-engagement	199	34	28	0	32
9661	2014-04-02 09:17:31	post	Strategy Is Easy. Here’s How To Earn Buy-In	http://switchandshift.com/strategy-is-easy-heres-how-to-earn-buy-in	122	3	3	0	15
9625	2014-04-02 09:17:34	post	Do it for the Team	http://switchandshift.com/do-it-for-the-team	146	5	13	1	29
9644	2014-04-02 09:17:35	post	Embrace The Amateur Within	http://switchandshift.com/embrace-the-amateur-within	189	21	32	0	35
9575	2014-04-02 09:17:36	post	ROI on Conversations #socialmedia	http://switchandshift.com/roi-on-conversations-socialmedia	230	5	7	0	15
9565	2014-04-02 09:17:37	post	Why Your Employees Aren't Helping You Change	http://switchandshift.com/why-your-employees-arent-helping-you-change	380	12	5	3	123
9558	2014-04-02 09:17:39	post	Why Telecommuting Should Be Part of Your HR Strategy	http://switchandshift.com/why-telecommuting-should-be-part-of-your-hr-strategy	191	15	16	1	13
9592	2014-04-02 09:17:40	post	There’s Nothing Realistic About Winning	http://switchandshift.com/theres-nothing-realistic-about-winning	188	26	8	0	22
9547	2014-04-02 09:17:43	post	How You Can Make a Lasting Impression	http://switchandshift.com/how-you-can-make-a-lasting-impression	211	22	11	0	46
9525	2014-04-02 09:17:44	post	Making Human Resources More Human	http://switchandshift.com/making-human-resources-more-human	288	26	13	1	65
9507	2014-04-02 09:17:49	post	5 Ways to Find Your Authentic Self	http://switchandshift.com/5-ways-to-find-your-authentic-self	280	44	22	0	101
9485	2014-04-02 09:17:53	post	It Is A Great Day If…	http://switchandshift.com/it-is-a-great-day-if	137	20	11	0	43
9465	2014-04-02 09:17:55	post	10 Trends Change Leaders Can't Ignore in 2014	http://switchandshift.com/10-trends-change-leaders-cant-ignore-in-2014	527	114	32	4	176
9437	2014-04-02 09:18:01	post	From Structures to Nets – Leadership in the Shift Age	http://switchandshift.com/from-structures-to-nets-leadership-in-the-shift-age	157	14	10	2	33
9456	2014-04-02 09:18:03	post	The Energy Efficiency of Trust & Vulnerability: A Conversation	http://switchandshift.com/the-energy-efficiency-of-trust-vulnerability-a-conversation	116	30	11	2	15
9428	2014-04-02 09:18:07	post	The Flat Revolution: What Makes Today So Different From 1958	http://switchandshift.com/the-flat-revolution-what-makes-today-so-different-from-1958	110	14	21	0	22
9388	2014-04-02 09:18:13	post	Why the Future of Your Business Depends on Curiosity	http://switchandshift.com/why-the-future-of-your-business-depends-on-curiosity	338	81	39	1	162
9405	2014-04-02 09:18:15	post	BOLD: 3 Key Areas to Motivate and Inspire Employees	http://switchandshift.com/3-key-areas-to-motivate-and-inspire-employees	104	30	12	1	61
9381	2014-04-02 09:18:17	post	BOLD: 4 Simple Steps to Enhance Ideation, Communication, and Results	http://switchandshift.com/bold-4-simple-steps-to-enhance-ideation-communication-and-results	170	39	9	17	45
9336	2014-04-02 09:18:19	post	BOLD: Bold Leadership is Not What You Think	http://switchandshift.com/bold-bold-leadership-is-not-what-you-think	113	9	3	1	39
9347	2014-04-02 09:18:21	post	BOLD: The Startup Shift from Up to Flat	http://switchandshift.com/the-startup-shift-from-up-to-flat	75	13	1	0	2
9303	2014-04-02 09:18:27	post	BOLD: KPIs - Measuring What Really Matters	http://switchandshift.com/bold-kpis-measuring-what-really-matters	101	19	5	1	49
9256	2014-04-02 09:18:31	post	BOLD: Do Your Behaviors Belie Your Beliefs?	http://switchandshift.com/bold-do-your-behaviors-belie-your-beliefs	114	25	18	0	36
9279	2014-04-02 09:18:33	post	BOLD: Defying the Traditional Workplace Culture	http://switchandshift.com/bold-defying-the-traditional-workplace-culture	153	30	15	0	53
9131	2014-04-02 09:18:39	post	Building Your Social Empire One Employee at a Time​	http://switchandshift.com/building-your-social-empire-one-employee-at-a-time%e2%80%8b	111	14	4	0	1
9201	2014-04-02 09:18:44	post	Employee Commitment: A Recipe for Peak Performance	http://switchandshift.com/employee-commitment-a-recipe-for-peak-performance	190	22	12	0	42
9163	2014-04-02 09:18:45	post	Leadership: Shift from Straight On to Straight Up	http://switchandshift.com/leadership-shift-from-straight-on-to-straight-up	106	10	24	1	25
8972	2014-04-02 09:18:48	post	Leadership in the Transformation Decade	http://switchandshift.com/leadership-in-the-transformation-decade	140	33	4	1	31
9220	2014-04-02 09:18:50	post	Casting a BOLD Vision	http://switchandshift.com/casting-a-bold-vision	69	7	12	3	5
9176	2014-04-02 09:18:52	post	7 Culture Elements for Doing Work That Matters	http://switchandshift.com/7-culture-elements-for-doing-work-that-matters	122	25	16	1	50
9143	2014-04-02 09:18:53	post	Acknowledging the Elephant in the Room	http://switchandshift.com/acknowledging-the-elephant-in-the-room	42	10	4	0	21
9015	2014-04-02 09:19:22	post	When The Front Door is Locked	http://switchandshift.com/when-the-front-door-is-locked	89	12	0	1	6
8945	2014-04-02 09:19:28	post	7 Ways to Enhance the Human Side of Your Business Culture	http://switchandshift.com/7-ways-to-enhance-the-human-side-of-your-business-culture	197	32	6	3	70
8936	2014-04-02 09:19:30	post	Seek Opportunity: Why Not to Climb the Corporate Ladder	http://switchandshift.com/seek-opportunity	75	24	5	0	58
8904	2014-04-02 09:19:31	post	All Customers and Employees are Not Created Equal	http://switchandshift.com/all-customers-and-employees-are-not-created-equal	162	38	4	6	35
8896	2014-04-02 09:19:32	post	A Culture Shift Lesson from the Navy SEALs	http://switchandshift.com/the-shift-toward-seal-team-sauce	69	22	1	1	45
8852	2014-04-02 09:19:35	post	Making Your Business Values Valuable	http://switchandshift.com/making-your-business-values-valuable	168	18	6	1	38
8776	2014-04-02 09:19:46	post	Employee Engagement Is The Solution 	http://switchandshift.com/employee-engagement-is-the-solution	141	18	10	1	19
8757	2014-04-02 09:19:53	post	Go Ahead, Bring Your Soul to Work	http://switchandshift.com/go-ahead-bring-your-soul-to-work	333	76	31	3	113
8746	2014-04-02 09:19:54	post	Leading a Values Revolution in Your Workplace	http://switchandshift.com/leading-a-values-revolution-in-your-workplace	179	24	1	3	34
8730	2014-04-02 09:19:55	post	The Great Turkey Rebellion: A Tale of Strategy and Complex Change	http://switchandshift.com/the-great-turkey-rebellion-a-tale-of-strategy-and-complex-change	112	36	24	4	27
8715	2014-04-02 09:19:58	post	Why Innovation Management IS Your Business	http://switchandshift.com/why-innovation-management-is-your-business	279	40	2	5	47
8673	2014-04-02 09:20:01	post	10 Leadership and Career Myths Debunked	http://switchandshift.com/10-leadership-and-career-myths-debunked	285	47	12	3	106
8643	2014-04-02 09:20:05	post	Successful Change Through Strategic Visualization	http://switchandshift.com/successful-change-through-strategic-visualization	194	32	4	4	63
8629	2014-04-02 09:20:10	post	Closing the Generational Platitude Gap	http://switchandshift.com/closing-the-generational-platitude-gap	161	65	20	4	30
8595	2014-04-02 09:20:14	post	Why This Is The Age of The Giver. #humanbiz TV with @AdamMGrant	http://switchandshift.com/why-this-is-the-age-of-the-giver-humanbiz-tv-with-adammgrant	129	30	2	1	47
8588	2014-04-02 09:20:15	post	The Solution to Retaining Women Employees	http://switchandshift.com/the-solution-to-retaining-women-employees	135	42	9	7	33
8576	2014-04-02 09:20:16	post	Redefining Collaboration	http://switchandshift.com/redefining-collaboration	256	58	8	4	86
8540	2014-04-02 09:20:19	post	Culture Change and Leadership	http://switchandshift.com/culture-change-and-leadership	214	22	7	4	93
8497	2014-04-02 09:20:24	post	Return on Morale FREE This Week Only #Humanbiz	http://switchandshift.com/return-on-morale-free-this-week-only-humanbiz	57	6	3	0	5
8484	2014-04-02 09:20:28	post	3 Trends Behind Worker Dissatisfaction	http://switchandshift.com/3-trends-behind-worker-dissatisfaction	115	20	3	3	31
8449	2014-04-02 09:20:34	post	Social's Role in Remaining Relevant in Business	http://switchandshift.com/socials-role-in-remaining-relevant-in-business	120	7	6	2	23
8407	2014-04-02 09:20:35	post	How Corporate Idolatry Negates A Rich Life	http://switchandshift.com/how-corporate-idolatry-negates-a-rich-life	105	10	8	0	19
8459	2014-04-02 09:20:36	post	What Top Talent Really Wants	http://switchandshift.com/what-top-talent-really-wants	177	15	11	1	85
8392	2014-04-02 09:20:40	post	A Canadian Tribute to the US Thanksgiving	http://switchandshift.com/a-canadian-tribute-to-the-us-thanksgiving	45	3	0	0	8
8353	2014-04-02 09:20:49	post	The Values Revolution: How Companies Are Drained of Their Best	http://switchandshift.com/the-values-revolution-how-companies-are-drained-of-their-best	98	10	6	1	31
8301	2014-04-02 09:20:53	post	Your Career Success Formula is Wrong	http://switchandshift.com/your-career-success-formula-is-wrong	103	12	5	1	21
8170	2014-04-02 09:21:10	post	3 Ways to #Follow Better Than #ff	http://switchandshift.com/3-ways-to-follow-better-than-ff	165	28	9	2	29
8161	2014-04-02 09:21:11	post	How to Build Your Communication Quotient	http://switchandshift.com/how-to-build-your-communication-quotient	264	44	33	4	45
7974	2014-04-02 09:21:29	post	Putting the I back in Team	http://switchandshift.com/putting-the-i-back-in-team	134	25	6	1	43
7966	2014-04-02 09:21:30	post	5 Ways to Modernize Your Relationship with Employees	http://switchandshift.com/5-ways-to-modernize-your-relationship-with-employees	285	46	17	2	109
7951	2014-04-02 09:21:32	post	Employee engagement problems? Deescalate them with ‘What’s working?’	http://switchandshift.com/employee-engagement-problems-deescalate-them-with-whats-working	191	29	20	1	36
7939	2014-04-02 09:21:34	post	5 Ways To Keep It Real At Work	http://switchandshift.com/5-ways-to-keep-it-real-at-work	197	13	9	4	44
7867	2014-04-02 09:21:37	post	Turning Next Year's Resolution into Today's Revolution	http://switchandshift.com/turning-next-years-resolution-into-todays-revolution	103	10	4	1	16
7881	2014-04-02 09:21:40	post	Three Known Causes of Death: Lead Paint, Asbestos, and PowerPoints!	http://switchandshift.com/three-known-causes-of-death-lead-paint-asbestos-and-powerpoints	155	16	22	1	55
7826	2014-04-02 09:21:44	post	The Leader's Greatest Harvest	http://switchandshift.com/the-leaders-harvest	1012	58	11	5	43
7818	2014-04-02 09:21:46	post	The Rise (and Fall) of Mega-Corporations	http://switchandshift.com/the-rise-and-fall-of-mega-corporations-2	190	32	18	2	36
7789	2014-04-02 09:21:50	post	The Invaluable Leadership Attribute of Compassion	http://switchandshift.com/the-invaluable-leadership-attribute-of-compassion	369	51	36	4	140
7744	2014-04-02 09:21:55	post	Talent Acquisition: The Primary Benefactor of the “Big 3”	http://switchandshift.com/talent-acquisition-the-primary-benefactor-of-the-big-3	137	16	16	1	41
7727	2014-04-02 09:21:58	post	We Can’t Handle the Truth	http://switchandshift.com/we-cant-handle-the-truth	158	42	20	3	41
7698	2014-04-02 09:22:00	post	Good Karma is Good Business	http://switchandshift.com/good-karma-is-good-business	684	73	19	2	132
7678	2014-04-02 09:22:04	post	How to Avoid Ineffectual Change	http://switchandshift.com/how-to-avoid-ineffectual-change	178	20	8	1	64
7652	2014-04-02 09:22:07	post	3 Engagement Strategies to Increase Productivity	http://switchandshift.com/3-engagement-strategies-to-increase-productivity	162	24	11	1	30
7575	2014-04-02 09:22:13	post	Two Key Tips for Your #SocialMedia Strategy	http://switchandshift.com/two-key-tips-for-your-socialmedia-strategy	233	19	16	2	34
7571	2014-04-02 09:22:17	post	Empower Your Employees and They Will Power Your Brand	http://switchandshift.com/empower-your-employees-and-they-will-power-your-brand	347	63	38	2	185
7594	2014-04-02 09:22:19	post	3 Reasons Why Your Board Should Care about Employee Engagement	http://switchandshift.com/3-reasons-why-your-board-should-care-about-employee-engagement	208	23	10	1	41
7494	2014-04-02 09:22:27	post	6 Ways to Implement Climate Change in the Workplace	http://switchandshift.com/6-ways-to-implement-climate-change-in-the-workplace	166	28	11	1	26
7443	2014-04-02 09:22:30	post	How To Start A Work Revolution	http://switchandshift.com/how-to-start-a-revolution	175	9	20	1	34
7422	2014-04-02 09:22:37	post	Barriers to Experimentation	http://switchandshift.com/barriers-to-experimentation	99	26	3	0	17
7399	2014-04-02 09:22:40	post	3 Simple Steps to Lead Successful Change	http://switchandshift.com/3-simple-steps-to-lead-successful-change	234	35	21	4	94
7228	2014-04-02 09:23:02	post	The Woman Problem and the Future of Business	http://switchandshift.com/the-woman-problem-and-the-future-of-business	255	63	23	4	67
7188	2014-04-02 09:23:05	post	Retain Women – Retrain Brains!	http://switchandshift.com/retain-women-retrain-brains	233	43	29	8	31
7148	2014-04-02 09:23:12	post	The Case for Workplace Optimism	http://switchandshift.com/the-case-for-workplace-optimism	254	27	14	2	55
7104	2014-04-02 09:23:17	post	Finding Strength in Your Competitor's Weakness	http://switchandshift.com/finding-strength-in-your-competitors-weakness	266	36	22	3	123
7034	2014-04-02 09:23:25	post	7 Ways to Win Against Challenges at Work	http://switchandshift.com/7-ways-to-win-the-race-with-five-wolves-us-all	330	26	38	21	73
7014	2014-04-02 09:23:27	post	Winning the Race with Wolves	http://switchandshift.com/winning-the-race-with-wolves	139	13	19	14	28
6855	2014-04-02 09:23:44	post	Transforming Culture to Maximize the Human Infrastructure	http://switchandshift.com/transforming-culture-to-maximize-the-human-infrastructure	218	15	13	1	41
6766	2014-04-02 09:23:55	post	9 Leadership Essentials to Cause Meaningful Work	http://switchandshift.com/9-leadership-essentials-to-cause-meaningful-work	478	54	10	3	142
6744	2014-04-02 09:24:00	post	The Death of Workplace Hierarchy	http://switchandshift.com/the-death-of-workplace-hierarchy	362	125	27	1	138
6709	2014-04-02 09:24:03	post	What’s Their Motivation? Making Sense of Workplace Behavior 	http://switchandshift.com/whats-their-motivation-making-sense-of-workplace-behavior	196	21	8	2	55
6673	2014-04-02 09:24:07	post	Outsiders’ Perspectives Should Be Encouraged Inside the Corporation	http://switchandshift.com/outsiders-perspectives-should-be-encouraged-inside-the-corporation	206	27	9	1	39
6429	2014-04-02 09:24:29	post	5 Business Values of Social Technology for Virtual Teams	http://switchandshift.com/5-business-values-of-social-technology-for-virtual-teams	266	16	13	1	60
6415	2014-04-02 09:24:30	post	Engagement Encouraged at All Levels Ensures a Thriving Company	http://switchandshift.com/engagement-encouraged-at-all-levels-ensures-a-thriving-company	345	43	18	2	104
6333	2014-04-02 09:24:36	post	What Is a Business Heretic, Anyway?	http://switchandshift.com/what-is-a-business-heretic-anyway	203	26	15	0	43
6246	2014-04-02 09:25:00	post	You Can’t Afford a Manager from Hell	http://switchandshift.com/you-cant-afford-a-manager-from-hell	230	35	18	0	57
6144	2014-04-02 09:25:11	post	4 Culture Elements to Increase the Number of Women Executives	http://switchandshift.com/4-culture-elements-that-increase-the-number-of-women-executives	286	24	9	2	103
6032	2014-04-02 09:25:20	post	Switch and Shift TV with Josh Allan Dykstra	http://switchandshift.com/switch-and-shift-tv-with-josh-allan-dykstra	113	4	1	0	7
5758	2014-04-02 09:25:42	post	Honesty: The Secret to Successful Organizations	http://switchandshift.com/honesty-the-secret-to-successful-organizations	374	64	33	0	121
5737	2014-04-02 09:25:45	post	10 Tips from the Business Heretic’s Handbook	http://switchandshift.com/10-tips-from-the-business-heretics-handbook	335	57	23	0	114
5651	2014-04-02 09:25:53	post	Use Non-Stick Labels in the Workplace	http://switchandshift.com/use-non-stick-labels-in-the-workplace	210	30	15	4	52
5485	2014-04-02 09:26:08	post	Activating the Hidden Face of Diversity in Your Leadership Culture	http://switchandshift.com/activating-the-hidden-face-of-diversity-in-your-leadership-culture	162	17	7	0	34
5217	2014-04-02 09:26:30	post	A Gen Y Definition of Leadership	http://switchandshift.com/a-gen-y-definition-of-leadership	266	72	7	0	71
5199	2014-04-02 09:26:32	post	It's Time for Honesty About Diversity	http://switchandshift.com/its-time-for-honesty-about-diversity	167	54	14	2	43
5161	2014-04-02 09:26:36	post	The Dirty Secret Of Workplace Diversity	http://switchandshift.com/the-dirty-secret-of-workplace-diversity	205	45	10	3	76
5127	2014-04-02 09:26:38	post	Why Every Organization Needs Some Misfits	http://switchandshift.com/why-every-organization-needs-some-misfits	386	189	47	0	213
5086	2014-04-02 09:26:41	post	Leadership, Diversity and the Power of Paradox	http://switchandshift.com/leadership-diversity-and-the-power-of-paradox	189	41	12	2	76
5042	2014-04-02 09:26:45	post	11 Characteristics of Meaningful Work	http://switchandshift.com/11-characteristics-of-meaningful-work	468	106	25	6	174
4998	2014-04-02 09:26:48	post	Software Development Can Teach Management to Become More Agile	http://switchandshift.com/software-development-can-teach-management-to-become-more-agile	204	27	9	0	43
4983	2014-04-02 09:26:50	post	"I'm Afraid That's Impossible"... Should Be Made Impossible	http://switchandshift.com/im-afraid-thats-impossible-should-be-made-impossible	151	32	6	2	32
4969	2014-04-02 09:26:51	post	Social Business Needs a Culture of Social Leadership	http://switchandshift.com/social-business-needs-a-culture-of-social-leadership	380	57	24	3	127
4930	2014-04-02 09:26:55	post	People Are Not Resources	http://switchandshift.com/people-are-not-resources	403	115	9	0	204
4897	2014-04-02 09:26:57	post	The CEO Challenge	http://switchandshift.com/the-ceo-challenge	248	58	4	0	92
4874	2014-04-02 09:26:59	post	Slow and Steady Loses Every Time	http://switchandshift.com/slow-and-steady-loses-every-time-3	147	13	7	0	40
4728	2014-04-02 09:27:05	post	There Is No TEAM Without "I"	http://switchandshift.com/there-is-no-team-without-i	204	38	6	0	60
4706	2014-04-02 09:27:11	post	The Container Store: A Culture Organized for Inspired Employees	http://switchandshift.com/the-container-store-a-culture-organized-for-inspired-employees	202	49	0	2	62
4633	2014-04-02 09:27:15	post	Creating Joy at Work Isn't Touchy-Feely	http://switchandshift.com/creating-joy-at-work-isnt-touchy-feely	159	37	10	3	38
4575	2014-04-02 09:27:20	post	How A Culture of Appreciation Develops Engaged and Loyal Employees	http://switchandshift.com/how-a-culture-of-appreciation-develops-engaged-and-loyal-employees	425	100	15	0	346
4469	2014-04-02 09:27:25	post	Stop Believing Work Gets Done at Work	http://switchandshift.com/stop-believing-work-gets-done-at-work	135	14	0	0	32
4490	2014-04-02 09:27:26	post	6 Contrarian Reasons Why You're Lucky to Be a Leader Today	http://switchandshift.com/6-contrarian-reasons-why-youre-lucky-to-be-a-leader-today	209	39	13	1	56
4357	2014-04-02 09:27:33	post	The Changing Face of Corporate Ethics	http://switchandshift.com/the-changing-face-of-corporate-ethics	150	12	1	0	27
4311	2014-04-02 09:27:36	post	5 Surprising Ways Leadership Can Motivate Employees and You	http://switchandshift.com/5-surprising-ways-leading-locally-can-motivate-employees-and-you	179	26	4	0	46
4232	2014-04-02 09:27:41	post	How do you create a curious culture?	http://switchandshift.com/how-do-you-create-a-curious-culture	226	30	7	0	45
4133	2014-04-02 09:27:46	post	Ted on "Marketing Made Simple TV"	http://switchandshift.com/ted-on-marketing-made-simple-tv	117	18	9	0	21
3799	2014-04-02 09:28:05	post	Does Great Customer Service Still Matter?	http://switchandshift.com/does-great-customer-service-still-matter	290	44	9	0	74
3698	2014-04-02 09:28:13	post	5 Areas to Motivate Employees to Grow	http://switchandshift.com/5-areas-to-motivate-employees-to-grow	315	47	6	0	119
3685	2014-04-02 09:28:15	post	#SwitchandShift is the new Home of Theory Y	http://switchandshift.com/switchandshift-employee-motivation-and-the-home-of-theory-y	167	25	4	0	23
3654	2014-04-02 09:28:16	post	Humanity at Work	http://switchandshift.com/humanity-at-work	162	22	6	1	49
3486	2014-04-02 09:28:17	post	What Trust Gets You	http://switchandshift.com/what-trust-gets-you	278	64	8	0	78
3618	2014-04-02 09:28:19	post	Overcoming Crappy Workplaces	http://switchandshift.com/overcoming-crappy-workplaces	200	50	10	0	103
3571	2014-04-02 09:28:22	post	Top 10 Guest Posts EVER!	http://switchandshift.com/top-10-guest-posts-ever	135	16	0	0	21
3562	2014-04-02 09:28:25	post	The Value of Meaningful Work	http://switchandshift.com/the-value-of-meaningful-work	347	59	6	0	84
3541	2014-04-02 09:28:28	post	A Better Way to Work Together	http://switchandshift.com/a-better-way-to-work-together	199	28	10	0	36
3374	2014-04-02 09:28:33	post	Shawn's Top 10 Posts of 2012	http://switchandshift.com/shawns-top-10-post-of-2012	141	5	1	1	13
3359	2014-04-02 09:28:34	post	Ted's Top 10 Posts of 2012	http://switchandshift.com/teds-top-10-posts-of-2012	203	17	10	1	20
3254	2014-04-02 09:28:42	post	The Neglected Culture	http://switchandshift.com/the-neglected-culture	188	23	14	1	113
